{
  "version": 3,
  "targets": {
    ".NETPortable,Version=v4.5,Profile=Profile111": {
      "Microsoft.Bcl.Build/1.0.21": {
        "type": "package",
        "build": {
          "build/Microsoft.Bcl.Build.targets": {}
        }
      },
      "MvvmNano.Core/3.1.0": {
        "type": "package",
        "compile": {
          "lib/portable45-net45+win8+wp8+wpa81/MvvmNano.Core.dll": {}
        },
        "runtime": {
          "lib/portable45-net45+win8+wp8+wpa81/MvvmNano.Core.dll": {}
        }
      },
      "MvvmNano.Forms/3.1.0": {
        "type": "package",
        "dependencies": {
          "MvvmNano.Core": "3.1.0",
          "Xamarin.Forms": "2.3.4.247"
        },
        "compile": {
          "lib/portable45-net45+win8+wp8+wpa81/MvvmNano.Forms.dll": {}
        },
        "runtime": {
          "lib/portable45-net45+win8+wp8+wpa81/MvvmNano.Forms.dll": {}
        }
      },
      "MvvmNano.Ninject/3.1.0": {
        "type": "package",
        "dependencies": {
          "MvvmNano.Core": "3.1.0",
          "Portable.Ninject": "3.3.1"
        },
        "compile": {
          "lib/portable45-net45+win8+wp8+wpa81/MvvmNano.Ninject.dll": {}
        },
        "runtime": {
          "lib/portable45-net45+win8+wp8+wpa81/MvvmNano.Ninject.dll": {}
        }
      },
      "NControl/0.9.1": {
        "type": "package",
        "dependencies": {
          "NGraphics": "0.4.0",
          "Xamarin.Forms": "2.2.0.45"
        },
        "compile": {
          "lib/portable-net45+wp8+wp80+wpa81+win8+MonoAndroid10+MonoTouch10+Xamarin.iOS10/NControl.dll": {}
        },
        "runtime": {
          "lib/portable-net45+wp8+wp80+wpa81+win8+MonoAndroid10+MonoTouch10+Xamarin.iOS10/NControl.dll": {}
        }
      },
      "Newtonsoft.Json/10.0.3": {
        "type": "package",
        "compile": {
          "lib/portable-net45+win8+wp8+wpa81/Newtonsoft.Json.dll": {}
        },
        "runtime": {
          "lib/portable-net45+win8+wp8+wpa81/Newtonsoft.Json.dll": {}
        }
      },
      "NGraphics/0.4.0": {
        "type": "package",
        "compile": {
          "lib/portable-net45+wp8+wpa81+win8+MonoAndroid10+MonoTouch10+Xamarin.iOS10/NGraphics.dll": {}
        },
        "runtime": {
          "lib/portable-net45+wp8+wpa81+win8+MonoAndroid10+MonoTouch10+Xamarin.iOS10/NGraphics.dll": {}
        }
      },
      "PCLCrypto/2.0.147": {
        "type": "package",
        "dependencies": {
          "PInvoke.NCrypt": "0.3.2",
          "Validation": "2.2.8"
        },
        "compile": {
          "lib/portable-net45+win+wpa81+wp80+MonoAndroid10+xamarinios10+MonoTouch10/PCLCrypto.dll": {}
        },
        "runtime": {
          "lib/portable-net45+win+wpa81+wp80+MonoAndroid10+xamarinios10+MonoTouch10/PCLCrypto.dll": {}
        }
      },
      "PInvoke.BCrypt/0.3.2": {
        "type": "package",
        "dependencies": {
          "PInvoke.Kernel32": "0.3.2",
          "PInvoke.Windows.Core": "0.3.2"
        },
        "compile": {
          "lib/portable-net45+win+wpa81+MonoAndroid10+xamarinios10+MonoTouch10/PInvoke.BCrypt.dll": {}
        },
        "runtime": {
          "lib/portable-net45+win+wpa81+MonoAndroid10+xamarinios10+MonoTouch10/PInvoke.BCrypt.dll": {}
        }
      },
      "PInvoke.Kernel32/0.3.2": {
        "type": "package",
        "dependencies": {
          "PInvoke.Windows.Core": "0.3.2"
        },
        "compile": {
          "lib/portable-net45+win+wpa81+MonoAndroid10+xamarinios10+MonoTouch10/PInvoke.Kernel32.dll": {}
        },
        "runtime": {
          "lib/portable-net45+win+wpa81+MonoAndroid10+xamarinios10+MonoTouch10/PInvoke.Kernel32.dll": {}
        }
      },
      "PInvoke.NCrypt/0.3.2": {
        "type": "package",
        "dependencies": {
          "PInvoke.BCrypt": "0.3.2",
          "PInvoke.Windows.Core": "0.3.2"
        },
        "compile": {
          "lib/portable-net45+win+wpa81+MonoAndroid10+xamarinios10+MonoTouch10/PInvoke.NCrypt.dll": {}
        },
        "runtime": {
          "lib/portable-net45+win+wpa81+MonoAndroid10+xamarinios10+MonoTouch10/PInvoke.NCrypt.dll": {}
        }
      },
      "PInvoke.Windows.Core/0.3.2": {
        "type": "package",
        "compile": {
          "lib/portable-net45+win+wpa81+MonoAndroid10+xamarinios10+MonoTouch10/PInvoke.Windows.Core.dll": {}
        },
        "runtime": {
          "lib/portable-net45+win+wpa81+MonoAndroid10+xamarinios10+MonoTouch10/PInvoke.Windows.Core.dll": {}
        }
      },
      "Portable.Ninject/3.3.1": {
        "type": "package",
        "compile": {
          "lib/portable-net4+sl5+wp8+win8+wpa81+monotouch+monoandroid+Xamarin.iOS/Ninject.dll": {}
        },
        "runtime": {
          "lib/portable-net4+sl5+wp8+win8+wpa81+monotouch+monoandroid+Xamarin.iOS/Ninject.dll": {}
        }
      },
      "Validation/2.2.8": {
        "type": "package",
        "compile": {
          "lib/portable-net40+sl50+win+wpa81+wp80+MonoAndroid10+xamarinios10+MonoTouch10/Validation.dll": {}
        },
        "runtime": {
          "lib/portable-net40+sl50+win+wpa81+wp80+MonoAndroid10+xamarinios10+MonoTouch10/Validation.dll": {}
        }
      },
      "Xam.FormsPlugin.IconEntry/1.0.1": {
        "type": "package",
        "dependencies": {
          "Xamarin.Forms": "[2.0.0, 3.0.0)"
        },
        "compile": {
          "lib/portable-win+net45+wp80+win81+wpa81+MonoAndroid10+MonoTouch10+Xamarin.iOS10/IconEntry.FormsPlugin.Abstractions.dll": {}
        },
        "runtime": {
          "lib/portable-win+net45+wp80+win81+wpa81+MonoAndroid10+MonoTouch10+Xamarin.iOS10/IconEntry.FormsPlugin.Abstractions.dll": {}
        }
      },
      "Xam.Plugin.Geolocator/4.1.2": {
        "type": "package",
        "compile": {
          "lib/netstandard1.0/Plugin.Geolocator.Abstractions.dll": {},
          "lib/netstandard1.0/Plugin.Geolocator.dll": {}
        },
        "runtime": {
          "lib/netstandard1.0/Plugin.Geolocator.Abstractions.dll": {},
          "lib/netstandard1.0/Plugin.Geolocator.dll": {}
        }
      },
      "Xamarin.Auth/1.5.0.3": {
        "type": "package",
        "dependencies": {
          "Microsoft.Bcl.Build": "1.0.21",
          "PCLCrypto": "2.0.147"
        },
        "compile": {
          "lib/portable-net45+wp8+wpa81+win8+MonoAndroid10+MonoTouch10+XamarinIOS10/Xamarin.Auth.dll": {}
        },
        "runtime": {
          "lib/portable-net45+wp8+wpa81+win8+MonoAndroid10+MonoTouch10+XamarinIOS10/Xamarin.Auth.dll": {}
        }
      },
      "Xamarin.Forms/2.4.0.18342": {
        "type": "package",
        "compile": {
          "lib/portable-win+net45+wp80+win81+wpa81/Xamarin.Forms.Core.dll": {},
          "lib/portable-win+net45+wp80+win81+wpa81/Xamarin.Forms.Platform.dll": {},
          "lib/portable-win+net45+wp80+win81+wpa81/Xamarin.Forms.Xaml.dll": {}
        },
        "runtime": {
          "lib/portable-win+net45+wp80+win81+wpa81/Xamarin.Forms.Core.dll": {},
          "lib/portable-win+net45+wp80+win81+wpa81/Xamarin.Forms.Platform.dll": {},
          "lib/portable-win+net45+wp80+win81+wpa81/Xamarin.Forms.Xaml.dll": {}
        },
        "build": {
          "build/portable-win+net45+wp80+win81+wpa81/Xamarin.Forms.targets": {}
        }
      },
      "Xamarin.Forms.Maps/2.4.0.18342": {
        "type": "package",
        "dependencies": {
          "Xamarin.Forms": "2.4.0.18342"
        },
        "compile": {
          "lib/portable-win+net45+wp80+win81+wpa81/Xamarin.Forms.Maps.dll": {}
        },
        "runtime": {
          "lib/portable-win+net45+wp80+win81+wpa81/Xamarin.Forms.Maps.dll": {}
        }
      }
    }
  },
  "libraries": {
    "Microsoft.Bcl.Build/1.0.21": {
      "sha512": "sgHu4mIt0+NVGyI12Bj4hLPypNK55UOH+ologj2LqDCjxq3EbIxe/uAtHjY+fEwbE1dtsAHG8SXHf+V/EYbKTg==",
      "type": "package",
      "path": "microsoft.bcl.build/1.0.21",
      "files": [
        "License-Stable.rtf",
        "build/Microsoft.Bcl.Build.Tasks.dll",
        "build/Microsoft.Bcl.Build.targets",
        "microsoft.bcl.build.1.0.21.nupkg.sha512",
        "microsoft.bcl.build.nuspec"
      ]
    },
    "MvvmNano.Core/3.1.0": {
      "sha512": "l2MCXMrPOBmvANwQ0NtDO4Bwyd/VDdfr7WKuGZ06efS1NDnbu2LShBUHEbGbndtpA+5vpImzh+LhATKp8d3s1g==",
      "type": "package",
      "path": "mvvmnano.core/3.1.0",
      "files": [
        "lib/portable45-net45+win8+wp8+wpa81/MvvmNano.Core.dll",
        "lib/portable45-net45+win8+wp8+wpa81/MvvmNano.Core.xml",
        "mvvmnano.core.3.1.0.nupkg.sha512",
        "mvvmnano.core.nuspec"
      ]
    },
    "MvvmNano.Forms/3.1.0": {
      "sha512": "bIeO8BJSCJQog1BdL02Men9syAd5/1WWJBjOurb2aq851KDwANvASp35qLzazv8w4gQiV8HIB5r7mordXlJIOw==",
      "type": "package",
      "path": "mvvmnano.forms/3.1.0",
      "files": [
        "lib/portable45-net45+win8+wp8+wpa81/MvvmNano.Forms.dll",
        "lib/portable45-net45+win8+wp8+wpa81/MvvmNano.Forms.xml",
        "mvvmnano.forms.3.1.0.nupkg.sha512",
        "mvvmnano.forms.nuspec"
      ]
    },
    "MvvmNano.Ninject/3.1.0": {
      "sha512": "ZsAwK9vbsNyFuq+CZ05pA5zagTLfW4o2TNohSW3yKKf5BdQEn3zQia52eYLOOJrptj5GJsA8ju2iFjpUQO+zUQ==",
      "type": "package",
      "path": "mvvmnano.ninject/3.1.0",
      "files": [
        "lib/portable45-net45+win8+wp8+wpa81/MvvmNano.Ninject.XML",
        "lib/portable45-net45+win8+wp8+wpa81/MvvmNano.Ninject.dll",
        "mvvmnano.ninject.3.1.0.nupkg.sha512",
        "mvvmnano.ninject.nuspec"
      ]
    },
    "NControl/0.9.1": {
      "sha512": "6DWickngPepGH63kL6p++lKPGOgGE84xhqw8CtmYNYVZ/QZSVgX6mCIPS7sxXpBZfvZGSyc2VqwAxd7AB7f+jQ==",
      "type": "package",
      "path": "ncontrol/0.9.1",
      "files": [
        "lib/MonoAndroid10/NControl.Droid.dll",
        "lib/MonoAndroid10/NControl.dll",
        "lib/Xamarin.iOS10/NControl.dll",
        "lib/Xamarin.iOS10/NControl.iOS.dll",
        "lib/portable-net45+wp8+wp80+wpa81+win8+MonoAndroid10+MonoTouch10+Xamarin.iOS10/NControl.dll",
        "lib/win81/NControl.WindowsStore.dll",
        "lib/win81/NControl.dll",
        "lib/wp80/NControl.WP80.dll",
        "lib/wp80/NControl.dll",
        "lib/wp81/NControl.WP81.dll",
        "lib/wp81/NControl.dll",
        "lib/wpa81/NControl.WindowsPhone.dll",
        "lib/wpa81/NControl.dll",
        "ncontrol.0.9.1.nupkg.sha512",
        "ncontrol.nuspec"
      ]
    },
    "Newtonsoft.Json/10.0.3": {
      "sha512": "hSXaFmh7hNCuEoC4XNY5DrRkLDzYHqPx/Ik23R4J86Z7PE/Y6YidhG602dFVdLBRSdG6xp9NabH3dXpcoxWvww==",
      "type": "package",
      "path": "newtonsoft.json/10.0.3",
      "files": [
        "LICENSE.md",
        "lib/net20/Newtonsoft.Json.dll",
        "lib/net20/Newtonsoft.Json.xml",
        "lib/net35/Newtonsoft.Json.dll",
        "lib/net35/Newtonsoft.Json.xml",
        "lib/net40/Newtonsoft.Json.dll",
        "lib/net40/Newtonsoft.Json.xml",
        "lib/net45/Newtonsoft.Json.dll",
        "lib/net45/Newtonsoft.Json.xml",
        "lib/netstandard1.0/Newtonsoft.Json.dll",
        "lib/netstandard1.0/Newtonsoft.Json.xml",
        "lib/netstandard1.3/Newtonsoft.Json.dll",
        "lib/netstandard1.3/Newtonsoft.Json.xml",
        "lib/portable-net40+sl5+win8+wp8+wpa81/Newtonsoft.Json.dll",
        "lib/portable-net40+sl5+win8+wp8+wpa81/Newtonsoft.Json.xml",
        "lib/portable-net45+win8+wp8+wpa81/Newtonsoft.Json.dll",
        "lib/portable-net45+win8+wp8+wpa81/Newtonsoft.Json.xml",
        "newtonsoft.json.10.0.3.nupkg.sha512",
        "newtonsoft.json.nuspec",
        "tools/install.ps1"
      ]
    },
    "NGraphics/0.4.0": {
      "sha512": "/q0eSoMhD52Z0fEbWrBF/KgzumVBOSZfJckw9dJnmjU4usdIs6cL6oD/cRkS8SV7fQKqXlZLn+oGjxXVt3nMRQ==",
      "type": "package",
      "path": "ngraphics/0.4.0",
      "files": [
        "lib/MonoAndroid10/NGraphics.Android.dll",
        "lib/MonoAndroid10/NGraphics.Android.dll.mdb",
        "lib/MonoAndroid10/NGraphics.Android.xml",
        "lib/MonoAndroid10/NGraphics.dll",
        "lib/MonoAndroid10/NGraphics.dll.mdb",
        "lib/MonoAndroid10/NGraphics.xml",
        "lib/Xamarin.Mac20/NGraphics.Mac.dll",
        "lib/Xamarin.Mac20/NGraphics.Mac.dll.mdb",
        "lib/Xamarin.Mac20/NGraphics.Mac.xml",
        "lib/Xamarin.Mac20/NGraphics.dll",
        "lib/Xamarin.Mac20/NGraphics.dll.mdb",
        "lib/Xamarin.Mac20/NGraphics.xml",
        "lib/Xamarin.iOS10/NGraphics.dll",
        "lib/Xamarin.iOS10/NGraphics.dll.mdb",
        "lib/Xamarin.iOS10/NGraphics.iOS.dll",
        "lib/Xamarin.iOS10/NGraphics.iOS.dll.mdb",
        "lib/Xamarin.iOS10/NGraphics.iOS.xml",
        "lib/Xamarin.iOS10/NGraphics.xml",
        "lib/net45/NGraphics.Net.dll",
        "lib/net45/NGraphics.Net.dll.mdb",
        "lib/net45/NGraphics.Net.xml",
        "lib/net45/NGraphics.dll",
        "lib/net45/NGraphics.dll.mdb",
        "lib/net45/NGraphics.xml",
        "lib/portable-net45+wp8+wpa81+win8+MonoAndroid10+MonoTouch10+Xamarin.iOS10/NGraphics.dll",
        "lib/portable-net45+wp8+wpa81+win8+MonoAndroid10+MonoTouch10+Xamarin.iOS10/NGraphics.dll.mdb",
        "lib/portable-net45+wp8+wpa81+win8+MonoAndroid10+MonoTouch10+Xamarin.iOS10/NGraphics.xml",
        "lib/win81/NGraphics.WindowsStore.dll",
        "lib/win81/NGraphics.WindowsStore.dll.mdb/NGraphics.WindowsStore.pdb",
        "lib/win81/NGraphics.WindowsStore.xml",
        "lib/win81/NGraphics.dll",
        "lib/win81/NGraphics.dll.mdb",
        "lib/win81/NGraphics.xml",
        "lib/wpa81/NGraphics.WindowsPhone.dll",
        "lib/wpa81/NGraphics.WindowsPhone.dll.mdb/NGraphics.WindowsPhone.pdb",
        "lib/wpa81/NGraphics.WindowsPhone.xml",
        "lib/wpa81/NGraphics.dll",
        "lib/wpa81/NGraphics.dll.mdb",
        "lib/wpa81/NGraphics.xml",
        "ngraphics.0.4.0.nupkg.sha512",
        "ngraphics.nuspec"
      ]
    },
    "PCLCrypto/2.0.147": {
      "sha512": "OFNDBjhP+qPukqB8PiGbWDo70gHsEzSKupL47JisjYFQaGwlPPCnN8ah59QCzIvsg9IUr2AecGKXF3ONpyFL9g==",
      "type": "package",
      "path": "pclcrypto/2.0.147",
      "files": [
        "lib/MonoAndroid23/PCLCrypto.dll",
        "lib/MonoAndroid23/PCLCrypto.xml",
        "lib/MonoTouch10/PCLCrypto.dll",
        "lib/MonoTouch10/PCLCrypto.xml",
        "lib/net45/PCLCrypto.dll",
        "lib/net45/PCLCrypto.xml",
        "lib/portable-net45+win+wpa81+wp80+MonoAndroid10+xamarinios10+MonoTouch10/PCLCrypto.dll",
        "lib/portable-net45+win+wpa81+wp80+MonoAndroid10+xamarinios10+MonoTouch10/PCLCrypto.xml",
        "lib/portable-win81+wpa81/PCLCrypto.dll",
        "lib/portable-win81+wpa81/PCLCrypto.xml",
        "lib/wp80/PCLCrypto.dll",
        "lib/wp80/PCLCrypto.xml",
        "lib/xamarinios10/PCLCrypto.dll",
        "lib/xamarinios10/PCLCrypto.xml",
        "pclcrypto.2.0.147.nupkg.sha512",
        "pclcrypto.nuspec"
      ]
    },
    "PInvoke.BCrypt/0.3.2": {
      "sha512": "6nSjPx88F+dcQgxfbM/lkYhi/zQWxwBcGAS3de/Q7YmPr5QdLNv5ZMk2UEFpMQhlFNya4TdUy5i3HKA12uMa7Q==",
      "type": "package",
      "path": "pinvoke.bcrypt/0.3.2",
      "files": [
        "lib/net40/PInvoke.BCrypt.dll",
        "lib/net40/PInvoke.BCrypt.xml",
        "lib/portable-net40+win+wpa81+MonoAndroid10+xamarinios10+MonoTouch10/PInvoke.BCrypt.dll",
        "lib/portable-net40+win+wpa81+MonoAndroid10+xamarinios10+MonoTouch10/PInvoke.BCrypt.xml",
        "lib/portable-net45+win+wpa81+MonoAndroid10+xamarinios10+MonoTouch10/PInvoke.BCrypt.dll",
        "lib/portable-net45+win+wpa81+MonoAndroid10+xamarinios10+MonoTouch10/PInvoke.BCrypt.xml",
        "pinvoke.bcrypt.0.3.2.nupkg.sha512",
        "pinvoke.bcrypt.nuspec"
      ]
    },
    "PInvoke.Kernel32/0.3.2": {
      "sha512": "zkd5Vc5AQ9B489GMNlmd0wdKnRoLl1B/TnouwcjtaqWbDJ17TQSvBRnV7xjVEpBHQtL/248EaUTcDprJe9bZMA==",
      "type": "package",
      "path": "pinvoke.kernel32/0.3.2",
      "files": [
        "lib/net40/PInvoke.Kernel32.dll",
        "lib/net40/PInvoke.Kernel32.xml",
        "lib/portable-net40+win+wpa81+MonoAndroid10+xamarinios10+MonoTouch10/PInvoke.Kernel32.dll",
        "lib/portable-net40+win+wpa81+MonoAndroid10+xamarinios10+MonoTouch10/PInvoke.Kernel32.xml",
        "lib/portable-net45+win+wpa81+MonoAndroid10+xamarinios10+MonoTouch10/PInvoke.Kernel32.dll",
        "lib/portable-net45+win+wpa81+MonoAndroid10+xamarinios10+MonoTouch10/PInvoke.Kernel32.xml",
        "pinvoke.kernel32.0.3.2.nupkg.sha512",
        "pinvoke.kernel32.nuspec"
      ]
    },
    "PInvoke.NCrypt/0.3.2": {
      "sha512": "s7SIBXlr3qolZaM5mGEXG2sKBY4yFVHTWBlwhRC93le08Aj+n/IaFVnB9LBFv6mpCCivXdzad+9EX6HHds4PyQ==",
      "type": "package",
      "path": "pinvoke.ncrypt/0.3.2",
      "files": [
        "lib/net40/PInvoke.NCrypt.dll",
        "lib/net40/PInvoke.NCrypt.xml",
        "lib/portable-net40+win+wpa81+MonoAndroid10+xamarinios10+MonoTouch10/PInvoke.NCrypt.dll",
        "lib/portable-net40+win+wpa81+MonoAndroid10+xamarinios10+MonoTouch10/PInvoke.NCrypt.xml",
        "lib/portable-net45+win+wpa81+MonoAndroid10+xamarinios10+MonoTouch10/PInvoke.NCrypt.dll",
        "lib/portable-net45+win+wpa81+MonoAndroid10+xamarinios10+MonoTouch10/PInvoke.NCrypt.xml",
        "pinvoke.ncrypt.0.3.2.nupkg.sha512",
        "pinvoke.ncrypt.nuspec"
      ]
    },
    "PInvoke.Windows.Core/0.3.2": {
      "sha512": "cLG8L2mBqeM6mwKxYg34uZnW5A4cAqyWY4nh+ogxon6BOPLcuQ2QSK/b1IKduUIQg6mDgf06rZUVbuVVPi9+fg==",
      "type": "package",
      "path": "pinvoke.windows.core/0.3.2",
      "files": [
        "lib/portable-net40+win+wpa81+MonoAndroid10+xamarinios10+MonoTouch10/PInvoke.Windows.Core.dll",
        "lib/portable-net40+win+wpa81+MonoAndroid10+xamarinios10+MonoTouch10/PInvoke.Windows.Core.xml",
        "lib/portable-net45+win+wpa81+MonoAndroid10+xamarinios10+MonoTouch10/PInvoke.Windows.Core.dll",
        "lib/portable-net45+win+wpa81+MonoAndroid10+xamarinios10+MonoTouch10/PInvoke.Windows.Core.xml",
        "pinvoke.windows.core.0.3.2.nupkg.sha512",
        "pinvoke.windows.core.nuspec"
      ]
    },
    "Portable.Ninject/3.3.1": {
      "sha512": "hq+v/D/rxNSStlfV0hVlfIQKVEbj2AsZKcuuUqqPpOnuD6HSl4ku3fvgQ7u6ffAh6ZwHUBG3pdP7PS+eb+Kumw==",
      "type": "package",
      "path": "portable.ninject/3.3.1",
      "files": [
        "lib/Wpa81/Ninject.dll",
        "lib/Wpa81/Ninject.pri",
        "lib/Wpa81/Ninject.xml",
        "lib/Xamarin.iOS/Ninject.dll",
        "lib/Xamarin.iOS/Ninject.xml",
        "lib/monoandroid/Ninject.dll",
        "lib/monoandroid/Ninject.xml",
        "lib/monotouch/Ninject.dll",
        "lib/monotouch/Ninject.xml",
        "lib/net40-client/Ninject.dll",
        "lib/net40-client/Ninject.xml",
        "lib/portable-net4+sl5+wp8+win8+wpa81+monotouch+monoandroid+Xamarin.iOS/Ninject.dll",
        "lib/portable-net4+sl5+wp8+win8+wpa81+monotouch+monoandroid+Xamarin.iOS/Ninject.xml",
        "lib/sl5/Ninject.dll",
        "lib/sl5/Ninject.xml",
        "lib/win8/Ninject.dll",
        "lib/win8/Ninject.pri",
        "lib/win8/Ninject.xml",
        "lib/wp8/Ninject.dll",
        "lib/wp8/Ninject.xml",
        "portable.ninject.3.3.1.nupkg.sha512",
        "portable.ninject.nuspec"
      ]
    },
    "Validation/2.2.8": {
      "sha512": "DMNc7JhPlgRwnR+NNb+ldoluObL+RBw96aMoiZae/Looa4vgaAnIysmle/bV2OKqDNW9oUBDckPyfa2+sX6JdA==",
      "type": "package",
      "path": "validation/2.2.8",
      "files": [
        "README.md",
        "lib/dotnet/Validation.dll",
        "lib/dotnet/Validation.xml",
        "lib/portable-net40+sl50+win+wpa81+wp80+MonoAndroid10+xamarinios10+MonoTouch10/Validation.dll",
        "lib/portable-net40+sl50+win+wpa81+wp80+MonoAndroid10+xamarinios10+MonoTouch10/Validation.xml",
        "lib/portable-net45+dnxcore50+win+wpa81+wp80+MonoAndroid10+xamarinios10+MonoTouch10/Validation.dll",
        "lib/portable-net45+dnxcore50+win+wpa81+wp80+MonoAndroid10+xamarinios10+MonoTouch10/Validation.xml",
        "tools/2013/RequiresNotNull.snippet",
        "tools/2013/RequiresNotNullOrEmpty.snippet",
        "tools/2015/RequiresNotNull.snippet",
        "tools/2015/RequiresNotNullOrEmpty.snippet",
        "tools/install_snippets.cmd",
        "tools/uninstall_snippets.cmd",
        "validation.2.2.8.nupkg.sha512",
        "validation.nuspec"
      ]
    },
    "Xam.FormsPlugin.IconEntry/1.0.1": {
      "sha512": "apKTa16Elz/vynFzrx9HBsyzmAaNpJRpHa41uE7ct+ijYwuzEu4QB3xS2ptm//NDnNBR8AqF5JrTc8D1IkILvA==",
      "type": "package",
      "path": "xam.formsplugin.iconentry/1.0.1",
      "files": [
        "lib/MonoAndroid10/IconEntry.FormsPlugin.Abstractions.dll",
        "lib/MonoAndroid10/IconEntry.FormsPlugin.Abstractions.pdb",
        "lib/MonoAndroid10/IconEntry.FormsPlugin.Abstractions.xml",
        "lib/MonoAndroid10/IconEntry.FormsPlugin.Android.dll",
        "lib/MonoAndroid10/IconEntry.FormsPlugin.Android.pdb",
        "lib/MonoAndroid10/IconEntry.FormsPlugin.Android.xml",
        "lib/UAP10/IconEntry.FormsPlugin.Abstractions.dll",
        "lib/UAP10/IconEntry.FormsPlugin.Abstractions.pdb",
        "lib/UAP10/IconEntry.FormsPlugin.Abstractions.xml",
        "lib/UAP10/IconEntry.FormsPlugin.UWP.dll",
        "lib/UAP10/IconEntry.FormsPlugin.UWP.pdb",
        "lib/UAP10/IconEntry.FormsPlugin.UWP.pri",
        "lib/UAP10/IconEntry.FormsPlugin.UWP/IconEntry.FormsPlugin.UWP.xr.xml",
        "lib/UAP10/IconEntry.FormsPlugin.UWP/IconEntryStyle.xaml",
        "lib/Xamarin.iOS10/IconEntry.FormsPlugin.Abstractions.dll",
        "lib/Xamarin.iOS10/IconEntry.FormsPlugin.Abstractions.xml",
        "lib/Xamarin.iOS10/IconEntry.FormsPlugin.iOS.dll",
        "lib/Xamarin.iOS10/IconEntry.FormsPlugin.iOS.xml",
        "lib/portable-win+net45+wp80+win81+wpa81+MonoAndroid10+MonoTouch10+Xamarin.iOS10/IconEntry.FormsPlugin.Abstractions.dll",
        "lib/portable-win+net45+wp80+win81+wpa81+MonoAndroid10+MonoTouch10+Xamarin.iOS10/IconEntry.FormsPlugin.Abstractions.pdb",
        "lib/portable-win+net45+wp80+win81+wpa81+MonoAndroid10+MonoTouch10+Xamarin.iOS10/IconEntry.FormsPlugin.Abstractions.xml",
        "xam.formsplugin.iconentry.1.0.1.nupkg.sha512",
        "xam.formsplugin.iconentry.nuspec"
      ]
    },
    "Xam.Plugin.Geolocator/4.1.2": {
      "sha512": "ciEiUKO9s/1zM+n78wITtUXrlhUZWQRpID5o3NzYiPMC85uExf93Lscog+x8fopciIDCA2mJMN3lyzJAU+pDJA==",
      "type": "package",
      "path": "xam.plugin.geolocator/4.1.2",
      "files": [
        "lib/MonoAndroid10/Plugin.Geolocator.Abstractions.dll",
        "lib/MonoAndroid10/Plugin.Geolocator.Abstractions.pdb",
        "lib/MonoAndroid10/Plugin.Geolocator.dll",
        "lib/MonoAndroid10/Plugin.Geolocator.pdb",
        "lib/MonoAndroid10/Plugin.Geolocator.xml",
        "lib/UAP10/Plugin.Geolocator.Abstractions.dll",
        "lib/UAP10/Plugin.Geolocator.Abstractions.pdb",
        "lib/UAP10/Plugin.Geolocator.XML",
        "lib/UAP10/Plugin.Geolocator.dll",
        "lib/UAP10/Plugin.Geolocator.pdb",
        "lib/UAP10/Plugin.Geolocator.pri",
        "lib/Xamarin.Mac20/Plugin.Geolocator.Abstractions.dll",
        "lib/Xamarin.Mac20/Plugin.Geolocator.Abstractions.pdb",
        "lib/Xamarin.Mac20/Plugin.Geolocator.dll",
        "lib/Xamarin.Mac20/Plugin.Geolocator.pdb",
        "lib/Xamarin.Mac20/Plugin.Geolocator.xml",
        "lib/Xamarin.iOS10/Plugin.Geolocator.Abstractions.dll",
        "lib/Xamarin.iOS10/Plugin.Geolocator.Abstractions.pdb",
        "lib/Xamarin.iOS10/Plugin.Geolocator.dll",
        "lib/Xamarin.iOS10/Plugin.Geolocator.pdb",
        "lib/Xamarin.iOS10/Plugin.Geolocator.xml",
        "lib/XamarinTVOS/Plugin.Geolocator.Abstractions.dll",
        "lib/XamarinTVOS/Plugin.Geolocator.Abstractions.pdb",
        "lib/XamarinTVOS/Plugin.Geolocator.dll",
        "lib/XamarinTVOS/Plugin.Geolocator.pdb",
        "lib/netstandard1.0/Plugin.Geolocator.Abstractions.dll",
        "lib/netstandard1.0/Plugin.Geolocator.Abstractions.pdb",
        "lib/netstandard1.0/Plugin.Geolocator.deps.json",
        "lib/netstandard1.0/Plugin.Geolocator.dll",
        "lib/netstandard1.0/Plugin.Geolocator.pdb",
        "lib/netstandard1.0/Plugin.Geolocator.xml",
        "readme.txt",
        "xam.plugin.geolocator.4.1.2.nupkg.sha512",
        "xam.plugin.geolocator.nuspec"
      ]
    },
    "Xamarin.Auth/1.5.0.3": {
      "sha512": "h3IqwjZ/VaGduLBcVBLmZKpNoj2Gvg3syTm+/LprB0Li5dJxY0XwiqfKzUq0VwrLlne4xlYW+fqnLj8gSCLL2g==",
      "type": "package",
      "path": "xamarin.auth/1.5.0.3",
      "files": [
        "lib/MonoAndroid10/Xamarin.Auth.dll",
        "lib/MonoAndroid10/Xamarin.Auth.pdb",
        "lib/Xamarin.iOS10/Xamarin.Auth.dll",
        "lib/Xamarin.iOS10/Xamarin.Auth.pdb",
        "lib/portable-net45+wp8+wpa81+win8+MonoAndroid10+MonoTouch10+XamarinIOS10/Xamarin.Auth.dll",
        "lib/portable-net45+wp8+wpa81+win8+MonoAndroid10+MonoTouch10+XamarinIOS10/Xamarin.Auth.pdb",
        "lib/uap10.0/Xamarin.Auth.dll",
        "lib/uap10.0/Xamarin.Auth.pdb",
        "lib/uap10.0/Xamarin.Auth.pri",
        "lib/uap10.0/Xamarin.Auth/WebAuthenticatorPage.xaml",
        "lib/uap10.0/Xamarin.Auth/Xamarin.Auth.xr.xml",
        "lib/win81/Xamarin.Auth.dll",
        "lib/win81/Xamarin.Auth.pdb",
        "lib/win81/Xamarin.Auth.pri",
        "lib/win81/Xamarin.Auth/WebAuthenticatorPage.xaml",
        "lib/win81/Xamarin.Auth/WebAuthenticatorPage.xbf",
        "lib/win81/Xamarin.Auth/Xamarin.Auth.xr.xml",
        "lib/wp8/Xamarin.Auth.dll",
        "lib/wp8/Xamarin.Auth.pdb",
        "lib/wpa81/Xamarin.Auth.dll",
        "lib/wpa81/Xamarin.Auth.pdb",
        "lib/wpa81/Xamarin.Auth.pri",
        "lib/wpa81/Xamarin.Auth/WebAuthenticatorPage.xaml",
        "lib/wpa81/Xamarin.Auth/WebAuthenticatorPage.xbf",
        "lib/wpa81/Xamarin.Auth/Xamarin.Auth.xr.xml",
        "xamarin.auth.1.5.0.3.nupkg.sha512",
        "xamarin.auth.nuspec"
      ]
    },
    "Xamarin.Forms/2.4.0.18342": {
      "sha512": "L06B17FaKwsMfMrbAPvMeQaPj6iJ61gcc4LWUBpCsmnxVmTnbwtBN5CMKBLUWseFWKd0KRQMu2EqObxK8oMzpQ==",
      "type": "package",
      "path": "xamarin.forms/2.4.0.18342",
      "files": [
        "build/netstandard1.0/Mono.Cecil.Mdb.dll",
        "build/netstandard1.0/Mono.Cecil.Pdb.dll",
        "build/netstandard1.0/Mono.Cecil.Rocks.dll",
        "build/netstandard1.0/Mono.Cecil.dll",
        "build/netstandard1.0/Xamarin.Forms.Build.Tasks.dll",
        "build/netstandard1.0/Xamarin.Forms.Core.dll",
        "build/netstandard1.0/Xamarin.Forms.DefaultItems.props",
        "build/netstandard1.0/Xamarin.Forms.DefaultItems.targets",
        "build/netstandard1.0/Xamarin.Forms.Xaml.dll",
        "build/netstandard1.0/Xamarin.Forms.props",
        "build/netstandard1.0/Xamarin.Forms.targets",
        "build/portable-win+net45+wp80+win81+wpa81/Mono.Cecil.Mdb.dll",
        "build/portable-win+net45+wp80+win81+wpa81/Mono.Cecil.Pdb.dll",
        "build/portable-win+net45+wp80+win81+wpa81/Mono.Cecil.Rocks.dll",
        "build/portable-win+net45+wp80+win81+wpa81/Mono.Cecil.dll",
        "build/portable-win+net45+wp80+win81+wpa81/Xamarin.Forms.Build.Tasks.dll",
        "build/portable-win+net45+wp80+win81+wpa81/Xamarin.Forms.Core.dll",
        "build/portable-win+net45+wp80+win81+wpa81/Xamarin.Forms.DefaultItems.targets",
        "build/portable-win+net45+wp80+win81+wpa81/Xamarin.Forms.Xaml.dll",
        "build/portable-win+net45+wp80+win81+wpa81/Xamarin.Forms.targets",
        "lib/MonoAndroid10/Design/Xamarin.Forms.Core.Design.dll",
        "lib/MonoAndroid10/Design/Xamarin.Forms.Xaml.Design.dll",
        "lib/MonoAndroid10/FormsViewGroup.dll",
        "lib/MonoAndroid10/FormsViewGroup.pdb",
        "lib/MonoAndroid10/Xamarin.Forms.Core.dll",
        "lib/MonoAndroid10/Xamarin.Forms.Core.pdb",
        "lib/MonoAndroid10/Xamarin.Forms.Core.xml",
        "lib/MonoAndroid10/Xamarin.Forms.Platform.Android.dll",
        "lib/MonoAndroid10/Xamarin.Forms.Platform.Android.pdb",
        "lib/MonoAndroid10/Xamarin.Forms.Platform.dll",
        "lib/MonoAndroid10/Xamarin.Forms.Xaml.dll",
        "lib/MonoAndroid10/Xamarin.Forms.Xaml.pdb",
        "lib/MonoAndroid10/Xamarin.Forms.Xaml.xml",
        "lib/WP80/Design/Xamarin.Forms.Core.Design.dll",
        "lib/WP80/Design/Xamarin.Forms.Xaml.Design.dll",
        "lib/WP80/Xamarin.Forms.Core.dll",
        "lib/WP80/Xamarin.Forms.Core.pdb",
        "lib/WP80/Xamarin.Forms.Core.xml",
        "lib/WP80/Xamarin.Forms.Platform.WP8.dll",
        "lib/WP80/Xamarin.Forms.Platform.dll",
        "lib/WP80/Xamarin.Forms.Xaml.dll",
        "lib/WP80/Xamarin.Forms.Xaml.pdb",
        "lib/WP80/Xamarin.Forms.Xaml.xml",
        "lib/Xamarin.Mac/Xamarin.Forms.Core.dll",
        "lib/Xamarin.Mac/Xamarin.Forms.Platform.dll",
        "lib/Xamarin.Mac/Xamarin.Forms.Platform.macOS.dll",
        "lib/Xamarin.Mac/Xamarin.Forms.Xaml.dll",
        "lib/Xamarin.iOS10/Design/Xamarin.Forms.Core.Design.dll",
        "lib/Xamarin.iOS10/Design/Xamarin.Forms.Xaml.Design.dll",
        "lib/Xamarin.iOS10/Xamarin.Forms.Core.dll",
        "lib/Xamarin.iOS10/Xamarin.Forms.Core.dll.mdb",
        "lib/Xamarin.iOS10/Xamarin.Forms.Core.pdb",
        "lib/Xamarin.iOS10/Xamarin.Forms.Core.xml",
        "lib/Xamarin.iOS10/Xamarin.Forms.Platform.dll",
        "lib/Xamarin.iOS10/Xamarin.Forms.Platform.iOS.dll",
        "lib/Xamarin.iOS10/Xamarin.Forms.Platform.iOS.pdb",
        "lib/Xamarin.iOS10/Xamarin.Forms.Xaml.dll",
        "lib/Xamarin.iOS10/Xamarin.Forms.Xaml.dll.mdb",
        "lib/Xamarin.iOS10/Xamarin.Forms.Xaml.pdb",
        "lib/Xamarin.iOS10/Xamarin.Forms.Xaml.xml",
        "lib/Xamarin.iOS10/ar/Xamarin.Forms.Platform.iOS.resources.dll",
        "lib/Xamarin.iOS10/ca/Xamarin.Forms.Platform.iOS.resources.dll",
        "lib/Xamarin.iOS10/cs/Xamarin.Forms.Platform.iOS.resources.dll",
        "lib/Xamarin.iOS10/da/Xamarin.Forms.Platform.iOS.resources.dll",
        "lib/Xamarin.iOS10/de/Xamarin.Forms.Platform.iOS.resources.dll",
        "lib/Xamarin.iOS10/el/Xamarin.Forms.Platform.iOS.resources.dll",
        "lib/Xamarin.iOS10/es/Xamarin.Forms.Platform.iOS.resources.dll",
        "lib/Xamarin.iOS10/fi/Xamarin.Forms.Platform.iOS.resources.dll",
        "lib/Xamarin.iOS10/fr/Xamarin.Forms.Platform.iOS.resources.dll",
        "lib/Xamarin.iOS10/he/Xamarin.Forms.Platform.iOS.resources.dll",
        "lib/Xamarin.iOS10/hi/Xamarin.Forms.Platform.iOS.resources.dll",
        "lib/Xamarin.iOS10/hr/Xamarin.Forms.Platform.iOS.resources.dll",
        "lib/Xamarin.iOS10/hu/Xamarin.Forms.Platform.iOS.resources.dll",
        "lib/Xamarin.iOS10/id/Xamarin.Forms.Platform.iOS.resources.dll",
        "lib/Xamarin.iOS10/it/Xamarin.Forms.Platform.iOS.resources.dll",
        "lib/Xamarin.iOS10/ja/Xamarin.Forms.Platform.iOS.resources.dll",
        "lib/Xamarin.iOS10/ko/Xamarin.Forms.Platform.iOS.resources.dll",
        "lib/Xamarin.iOS10/ms/Xamarin.Forms.Platform.iOS.resources.dll",
        "lib/Xamarin.iOS10/nb/Xamarin.Forms.Platform.iOS.resources.dll",
        "lib/Xamarin.iOS10/nl/Xamarin.Forms.Platform.iOS.resources.dll",
        "lib/Xamarin.iOS10/pl/Xamarin.Forms.Platform.iOS.resources.dll",
        "lib/Xamarin.iOS10/pt-BR/Xamarin.Forms.Platform.iOS.resources.dll",
        "lib/Xamarin.iOS10/pt/Xamarin.Forms.Platform.iOS.resources.dll",
        "lib/Xamarin.iOS10/ro/Xamarin.Forms.Platform.iOS.resources.dll",
        "lib/Xamarin.iOS10/ru/Xamarin.Forms.Platform.iOS.resources.dll",
        "lib/Xamarin.iOS10/sk/Xamarin.Forms.Platform.iOS.resources.dll",
        "lib/Xamarin.iOS10/sv/Xamarin.Forms.Platform.iOS.resources.dll",
        "lib/Xamarin.iOS10/th/Xamarin.Forms.Platform.iOS.resources.dll",
        "lib/Xamarin.iOS10/tr/Xamarin.Forms.Platform.iOS.resources.dll",
        "lib/Xamarin.iOS10/uk/Xamarin.Forms.Platform.iOS.resources.dll",
        "lib/Xamarin.iOS10/vi/Xamarin.Forms.Platform.iOS.resources.dll",
        "lib/Xamarin.iOS10/zh-HK/Xamarin.Forms.Platform.iOS.resources.dll",
        "lib/Xamarin.iOS10/zh-Hans/Xamarin.Forms.Platform.iOS.resources.dll",
        "lib/Xamarin.iOS10/zh-Hant/Xamarin.Forms.Platform.iOS.resources.dll",
        "lib/netstandard1.0/Design/Xamarin.Forms.Core.Design.dll",
        "lib/netstandard1.0/Design/Xamarin.Forms.Xaml.Design.dll",
        "lib/netstandard1.0/Xamarin.Forms.Core.dll",
        "lib/netstandard1.0/Xamarin.Forms.Core.dll.mdb",
        "lib/netstandard1.0/Xamarin.Forms.Core.pdb",
        "lib/netstandard1.0/Xamarin.Forms.Core.xml",
        "lib/netstandard1.0/Xamarin.Forms.Platform.dll",
        "lib/netstandard1.0/Xamarin.Forms.Xaml.dll",
        "lib/netstandard1.0/Xamarin.Forms.Xaml.dll.mdb",
        "lib/netstandard1.0/Xamarin.Forms.Xaml.pdb",
        "lib/netstandard1.0/Xamarin.Forms.Xaml.xml",
        "lib/portable-win+net45+wp80+win81+wpa81/Design/Xamarin.Forms.Core.Design.dll",
        "lib/portable-win+net45+wp80+win81+wpa81/Design/Xamarin.Forms.Xaml.Design.dll",
        "lib/portable-win+net45+wp80+win81+wpa81/Xamarin.Forms.Core.dll",
        "lib/portable-win+net45+wp80+win81+wpa81/Xamarin.Forms.Core.dll.mdb",
        "lib/portable-win+net45+wp80+win81+wpa81/Xamarin.Forms.Core.pdb",
        "lib/portable-win+net45+wp80+win81+wpa81/Xamarin.Forms.Core.xml",
        "lib/portable-win+net45+wp80+win81+wpa81/Xamarin.Forms.Platform.dll",
        "lib/portable-win+net45+wp80+win81+wpa81/Xamarin.Forms.Xaml.dll",
        "lib/portable-win+net45+wp80+win81+wpa81/Xamarin.Forms.Xaml.dll.mdb",
        "lib/portable-win+net45+wp80+win81+wpa81/Xamarin.Forms.Xaml.pdb",
        "lib/portable-win+net45+wp80+win81+wpa81/Xamarin.Forms.Xaml.xml",
        "lib/uap10.0/Design/Xamarin.Forms.Core.Design.dll",
        "lib/uap10.0/Design/Xamarin.Forms.Xaml.Design.dll",
        "lib/uap10.0/Xamarin.Forms.Core.dll",
        "lib/uap10.0/Xamarin.Forms.Core.xml",
        "lib/uap10.0/Xamarin.Forms.Platform.UAP.dll",
        "lib/uap10.0/Xamarin.Forms.Platform.UAP.pri",
        "lib/uap10.0/Xamarin.Forms.Platform.UAP/AutoSuggestStyle.xbf",
        "lib/uap10.0/Xamarin.Forms.Platform.UAP/FormsCommandBarStyle.xbf",
        "lib/uap10.0/Xamarin.Forms.Platform.UAP/FormsProgressBarStyle.xbf",
        "lib/uap10.0/Xamarin.Forms.Platform.UAP/FormsTextBoxStyle.xbf",
        "lib/uap10.0/Xamarin.Forms.Platform.UAP/MasterDetailControlStyle.xbf",
        "lib/uap10.0/Xamarin.Forms.Platform.UAP/PageControl.xbf",
        "lib/uap10.0/Xamarin.Forms.Platform.UAP/PageControlStyle.xbf",
        "lib/uap10.0/Xamarin.Forms.Platform.UAP/Properties/Xamarin.Forms.Platform.UAP.rd.xml",
        "lib/uap10.0/Xamarin.Forms.Platform.UAP/Resources.xbf",
        "lib/uap10.0/Xamarin.Forms.Platform.UAP/TabbedPageStyle.xbf",
        "lib/uap10.0/Xamarin.Forms.Platform.UAP/Xamarin.Forms.Platform.UAP.xr.xml",
        "lib/uap10.0/Xamarin.Forms.Platform.dll",
        "lib/uap10.0/Xamarin.Forms.Xaml.dll",
        "lib/uap10.0/Xamarin.Forms.Xaml.xml",
        "lib/win81/Design/Xamarin.Forms.Core.Design.dll",
        "lib/win81/Design/Xamarin.Forms.Xaml.Design.dll",
        "lib/win81/Xamarin.Forms.Core.dll",
        "lib/win81/Xamarin.Forms.Core.xml",
        "lib/win81/Xamarin.Forms.Platform.WinRT.Tablet.dll",
        "lib/win81/Xamarin.Forms.Platform.WinRT.Tablet.pri",
        "lib/win81/Xamarin.Forms.Platform.WinRT.Tablet/FormsProgressBarStyle.xbf",
        "lib/win81/Xamarin.Forms.Platform.WinRT.Tablet/FormsTextBoxStyle.xbf",
        "lib/win81/Xamarin.Forms.Platform.WinRT.Tablet/Resources.xbf",
        "lib/win81/Xamarin.Forms.Platform.WinRT.Tablet/TabletResources.xbf",
        "lib/win81/Xamarin.Forms.Platform.WinRT.Tablet/Xamarin.Forms.Platform.WinRT.Tablet.xr.xml",
        "lib/win81/Xamarin.Forms.Platform.WinRT.dll",
        "lib/win81/Xamarin.Forms.Platform.WinRT.pri",
        "lib/win81/Xamarin.Forms.Platform.WinRT/PageControl.xbf",
        "lib/win81/Xamarin.Forms.Platform.WinRT/StepperControl.xbf",
        "lib/win81/Xamarin.Forms.Platform.WinRT/Xamarin.Forms.Platform.WinRT.xr.xml",
        "lib/win81/Xamarin.Forms.Platform.dll",
        "lib/win81/Xamarin.Forms.Xaml.dll",
        "lib/win81/Xamarin.Forms.Xaml.xml",
        "lib/wpa81/Design/Xamarin.Forms.Core.Design.dll",
        "lib/wpa81/Design/Xamarin.Forms.Xaml.Design.dll",
        "lib/wpa81/Xamarin.Forms.Core.dll",
        "lib/wpa81/Xamarin.Forms.Core.xml",
        "lib/wpa81/Xamarin.Forms.Platform.WinRT.Phone.dll",
        "lib/wpa81/Xamarin.Forms.Platform.WinRT.Phone.pri",
        "lib/wpa81/Xamarin.Forms.Platform.WinRT.Phone/FormsProgressBarStyle.xbf",
        "lib/wpa81/Xamarin.Forms.Platform.WinRT.Phone/FormsTextBoxStyle.xbf",
        "lib/wpa81/Xamarin.Forms.Platform.WinRT.Phone/PhoneResources.xbf",
        "lib/wpa81/Xamarin.Forms.Platform.WinRT.Phone/Resources.xbf",
        "lib/wpa81/Xamarin.Forms.Platform.WinRT.Phone/SearchBox.xbf",
        "lib/wpa81/Xamarin.Forms.Platform.WinRT.Phone/Xamarin.Forms.Platform.WinRT.Phone.xr.xml",
        "lib/wpa81/Xamarin.Forms.Platform.WinRT.dll",
        "lib/wpa81/Xamarin.Forms.Platform.WinRT.pri",
        "lib/wpa81/Xamarin.Forms.Platform.WinRT/PageControl.xbf",
        "lib/wpa81/Xamarin.Forms.Platform.WinRT/StepperControl.xbf",
        "lib/wpa81/Xamarin.Forms.Platform.WinRT/Xamarin.Forms.Platform.WinRT.xr.xml",
        "lib/wpa81/Xamarin.Forms.Platform.dll",
        "lib/wpa81/Xamarin.Forms.Xaml.dll",
        "lib/wpa81/Xamarin.Forms.Xaml.xml",
        "xamarin.forms.2.4.0.18342.nupkg.sha512",
        "xamarin.forms.nuspec"
      ]
    },
    "Xamarin.Forms.Maps/2.4.0.18342": {
      "sha512": "+mO0xWSNdMH0FoMo2krzOsPyJiOak9DUmSFzhmbjRzXK+kicWw12AdGnSscKoe0KCXz3QIw+5xP7NqtDFkusHw==",
      "type": "package",
      "path": "xamarin.forms.maps/2.4.0.18342",
      "files": [
        "build/win81/ARM/Xamarin.Forms.Maps.WinRT.Tablet.dll",
        "build/win81/ARM/Xamarin.Forms.Maps.WinRT.Tablet.pri",
        "build/win81/ARM/Xamarin.Forms.Platform.WinRT.Tablet.dll",
        "build/win81/ARM/Xamarin.Forms.Platform.WinRT.Tablet.pri",
        "build/win81/ARM/Xamarin.Forms.Platform.WinRT.Tablet/FormsTextBoxStyle.xbf",
        "build/win81/ARM/Xamarin.Forms.Platform.WinRT.Tablet/Resources.xbf",
        "build/win81/ARM/Xamarin.Forms.Platform.WinRT.Tablet/TabletResources.xbf",
        "build/win81/ARM/Xamarin.Forms.Platform.WinRT.Tablet/Xamarin.Forms.Platform.WinRT.Tablet.xr.xml",
        "build/win81/Xamarin.Forms.Maps.props",
        "build/win81/Xamarin.Forms.Maps.targets",
        "build/win81/x64/Xamarin.Forms.Maps.WinRT.Tablet.dll",
        "build/win81/x64/Xamarin.Forms.Maps.WinRT.Tablet.pri",
        "build/win81/x64/Xamarin.Forms.Platform.WinRT.Tablet.dll",
        "build/win81/x64/Xamarin.Forms.Platform.WinRT.Tablet.pri",
        "build/win81/x64/Xamarin.Forms.Platform.WinRT.Tablet/FormsTextBoxStyle.xbf",
        "build/win81/x64/Xamarin.Forms.Platform.WinRT.Tablet/Resources.xbf",
        "build/win81/x64/Xamarin.Forms.Platform.WinRT.Tablet/TabletResources.xbf",
        "build/win81/x64/Xamarin.Forms.Platform.WinRT.Tablet/Xamarin.Forms.Platform.WinRT.Tablet.xr.xml",
        "build/win81/x86/Xamarin.Forms.Maps.WinRT.Tablet.dll",
        "build/win81/x86/Xamarin.Forms.Maps.WinRT.Tablet.pri",
        "build/win81/x86/Xamarin.Forms.Platform.WinRT.Tablet.dll",
        "build/win81/x86/Xamarin.Forms.Platform.WinRT.Tablet.pri",
        "build/win81/x86/Xamarin.Forms.Platform.WinRT.Tablet/FormsTextBoxStyle.xbf",
        "build/win81/x86/Xamarin.Forms.Platform.WinRT.Tablet/Resources.xbf",
        "build/win81/x86/Xamarin.Forms.Platform.WinRT.Tablet/TabletResources.xbf",
        "build/win81/x86/Xamarin.Forms.Platform.WinRT.Tablet/Xamarin.Forms.Platform.WinRT.Tablet.xr.xml",
        "lib/MonoAndroid10/Design/Xamarin.Forms.Maps.Design.dll",
        "lib/MonoAndroid10/Xamarin.Forms.Maps.Android.dll",
        "lib/MonoAndroid10/Xamarin.Forms.Maps.dll",
        "lib/MonoAndroid10/Xamarin.Forms.Maps.xml",
        "lib/WP80/Design/Xamarin.Forms.Maps.Design.dll",
        "lib/WP80/Xamarin.Forms.Maps.WP8.dll",
        "lib/WP80/Xamarin.Forms.Maps.dll",
        "lib/WP80/Xamarin.Forms.Maps.xml",
        "lib/Xamarin.Mac/Xamarin.Forms.Maps.dll",
        "lib/Xamarin.Mac/Xamarin.Forms.Maps.macOS.dll",
        "lib/Xamarin.Mac/Xamarin.Forms.Maps.xml",
        "lib/Xamarin.iOS10/Design/Xamarin.Forms.Maps.Design.dll",
        "lib/Xamarin.iOS10/Xamarin.Forms.Maps.dll",
        "lib/Xamarin.iOS10/Xamarin.Forms.Maps.iOS.dll",
        "lib/Xamarin.iOS10/Xamarin.Forms.Maps.xml",
        "lib/netstandard1.0/Xamarin.Forms.Maps.Design.dll",
        "lib/netstandard1.0/Xamarin.Forms.Maps.dll",
        "lib/netstandard1.0/Xamarin.Forms.Maps.xml",
        "lib/portable-win+net45+wp80+win81+wpa81/Design/Xamarin.Forms.Maps.Design.dll",
        "lib/portable-win+net45+wp80+win81+wpa81/Xamarin.Forms.Maps.dll",
        "lib/portable-win+net45+wp80+win81+wpa81/Xamarin.Forms.Maps.xml",
        "lib/uap10.0/Design/Xamarin.Forms.Maps.Design.dll",
        "lib/uap10.0/Xamarin.Forms.Maps.UWP.dll",
        "lib/uap10.0/Xamarin.Forms.Maps.UWP.pri",
        "lib/uap10.0/Xamarin.Forms.Maps.dll",
        "lib/win81/Design/Xamarin.Forms.Maps.Design.dll",
        "lib/win81/Xamarin.Forms.Maps.dll",
        "lib/win81/Xamarin.Forms.Maps.xml",
        "lib/wpa81/Design/Xamarin.Forms.Maps.Design.dll",
        "lib/wpa81/Xamarin.Forms.Maps.WinRT.Phone.dll",
        "lib/wpa81/Xamarin.Forms.Maps.WinRT.Phone.pri",
        "lib/wpa81/Xamarin.Forms.Maps.dll",
        "xamarin.forms.maps.2.4.0.18342.nupkg.sha512",
        "xamarin.forms.maps.nuspec"
      ]
    }
  },
  "projectFileDependencyGroups": {
    "": [
      "Microsoft.Bcl.Build >= 1.0.21",
      "MvvmNano.Core >= 3.1.0",
      "MvvmNano.Forms >= 3.1.0",
      "MvvmNano.Ninject >= 3.1.0",
      "NControl >= 0.9.1",
      "NGraphics >= 0.4.0",
      "Newtonsoft.Json >= 10.0.3",
      "PCLCrypto >= 2.0.147",
      "PInvoke.BCrypt >= 0.3.2",
      "PInvoke.Kernel32 >= 0.3.2",
      "PInvoke.NCrypt >= 0.3.2",
      "PInvoke.Windows.Core >= 0.3.2",
      "Portable.Ninject >= 3.3.1",
      "Validation >= 2.2.8",
      "Xam.FormsPlugin.IconEntry >= 1.0.1",
      "Xam.Plugin.Geolocator >= 4.1.2",
      "Xamarin.Auth >= 1.5.0.3",
      "Xamarin.Forms >= 2.4.0.18342",
      "Xamarin.Forms.Maps >= 2.4.0.18342"
    ],
    ".NETPortable,Version=v4.5,Profile=Profile111": []
  },
  "packageFolders": {
    "C:\\Users\\Alexander\\.nuget\\packages\\": {}
  },
  "project": {
    "restore": {
      "projectUniqueName": "C:\\Projekte\\MobileApplikationen\\TutorScout24\\TutorScout24.csproj",
      "projectName": "TutorScout24",
      "projectPath": "C:\\Projekte\\MobileApplikationen\\TutorScout24\\TutorScout24.csproj",
      "projectJsonPath": "C:\\Projekte\\MobileApplikationen\\TutorScout24\\project.json",
      "packagesPath": "C:\\Users\\Alexander\\.nuget\\packages\\",
      "outputPath": "C:\\Projekte\\MobileApplikationen\\TutorScout24\\obj\\",
      "projectStyle": "ProjectJson",
      "configFilePaths": [
        "C:\\Users\\Alexander\\AppData\\Roaming\\NuGet\\NuGet.Config",
        "C:\\Program Files (x86)\\NuGet\\Config\\Microsoft.VisualStudio.Offline.config"
      ],
      "sources": {
        "C:\\Program Files (x86)\\Microsoft SDKs\\NuGetPackages\\": {},
        "https://api.nuget.org/v3/index.json": {}
      }
    },
    "dependencies": {
      "Microsoft.Bcl.Build": "1.0.21",
      "MvvmNano.Core": "3.1.0",
      "MvvmNano.Forms": "3.1.0",
      "MvvmNano.Ninject": "3.1.0",
      "NControl": "0.9.1.0",
      "Newtonsoft.Json": "10.0.3",
      "NGraphics": "0.4.0",
      "PCLCrypto": "2.0.147",
      "PInvoke.BCrypt": "0.3.2",
      "PInvoke.Kernel32": "0.3.2",
      "PInvoke.NCrypt": "0.3.2",
      "PInvoke.Windows.Core": "0.3.2",
      "Portable.Ninject": "3.3.1",
      "Validation": "2.2.8",
      "Xam.FormsPlugin.IconEntry": "1.0.1",
      "Xam.Plugin.Geolocator": "4.1.2",
      "Xamarin.Auth": "1.5.0.3",
      "Xamarin.Forms": "2.4.0.18342",
      "Xamarin.Forms.Maps": "2.4.0.18342"
    },
    "frameworks": {
      "portable45-net45+win8+wpa81": {}
    }
  }
}